# This file was automatically created by FeynRules 2.0.8
# Mathematica version: 9.0 for Mac OS X x86 (64-bit) (January 24, 2013)
# Date: Thu 16 Jan 2014 15:27:52


# 
# This is the logfile for the model SM plus Type II Seesaw

# Authors: Terrance Figy
# Model version: 0.0.1
# Checking the Quantum numbers
   * Electric charge defined.
# Checking the Lagrangians
   * All Lagrangians are ok.
#
# Particle definitions
#

   * No particles removed. All particles correspond to GenInt setup.

# Automatically assigned PDG numbers
   * Assigned PDG number 9000001 to particle ghA
   * Assigned PDG number 9000002 to particle ghZ
   * Assigned PDG number 9000003 to particle ghWp
   * Assigned PDG number 9000004 to particle ghWm
   * Assigned PDG number 9000005 to particle ghG


# Compulsory PDG codes:
   * Class SM leptons complete.
   * Class SM neutrinos incomplete. 12, 14, 16 missing.
   * Class SM quarks complete.
   * Class SM gauge bosons complete.
#
# Parameter definitions
#

   * All parameters are ok.


# Vertices
   * Calling FeynmanRules for 1 Lagrangians.
   * Number of classes vertices: 186
   * Number of flavored vertices: 252
   * Saved vertices in InterfaceRun[ 1 ].
   * Removing all ghosts and Goldstone bosons form the output.
   * Checked QNumber conservation.
      - Quantum number Q conserved in all vertices.
   * particles.py written.
   * parameters.py written.
#
# Vertex definitions
#

   * 228 vertices written.
   * vertices.py written.
#
# Lorentz structure definitions
#

   * 27 lorentz structures written.
   * lorentz.py written.
#
# Coupling definitions
#

   * 252 couplings written.
   * couplings.py written.
#
# Coupling order definitions
#

   * 0 couplings orders written.
   * coupling_orders.py written.
#
# Decay definitions
#

   * 16 decays written.
   * decay.py not written
